{
  "success": true,
  "currentPage": 1,
  "totalPages": 20,
  "totalCount": 199,
  "perPage": 10,
  "data": [
    {
      "id": 1,
      "image": "https://pic.zizaihome.com/e2601442-32fe-11e8-91c9-00163e0c1e1c.jpg"
    },
    {
      "id": 2,
      "image": "https://pic.zizaihome.com/e2601442-32fe-11e8-91c9-00163e0c1e1c.jpg"
    },
    {
      "id": 3,
      "image": "https://pic.zizaihome.com/e2601442-32fe-11e8-91c9-00163e0c1e1c.jpg"
    },
    {
      "id": 4,
      "image": "https://pic.zizaihome.com/e2601442-32fe-11e8-91c9-00163e0c1e1c.jpg"
    },
    {
      "id": 5,
      "image": "https://pic.zizaihome.com/e2601442-32fe-11e8-91c9-00163e0c1e1c.jpg"
    },
    {
      "id": 6,
      "image": "https://pic.zizaihome.com/e2601442-32fe-11e8-91c9-00163e0c1e1c.jpg"
    },
    {
      "id": 7,
      "image": "https://pic.zizaihome.com/e2601442-32fe-11e8-91c9-00163e0c1e1c.jpg"
    },
    {
      "id": 8,
      "image": "https://pic.zizaihome.com/e2601442-32fe-11e8-91c9-00163e0c1e1c.jpg"
    },
    {
      "id": 9,
      "image": "https://pic.zizaihome.com/e2601442-32fe-11e8-91c9-00163e0c1e1c.jpg"
    },
    {
      "id": 10,
      "image": "https://pic.zizaihome.com/e2601442-32fe-11e8-91c9-00163e0c1e1c.jpg"
    },
    {
      "id": 11,
      "image": "https://pic.zizaihome.com/e2601442-32fe-11e8-91c9-00163e0c1e1c.jpg"
    },
    {
      "id": 12,
      "image": "https://pic.zizaihome.com/e2601442-32fe-11e8-91c9-00163e0c1e1c.jpg"
    },
    {
      "id": 13,
      "image": "https://pic.zizaihome.com/e2601442-32fe-11e8-91c9-00163e0c1e1c.jpg"
    },
    {
      "id": 14,
      "image": "https://pic.zizaihome.com/e2601442-32fe-11e8-91c9-00163e0c1e1c.jpg"
    },
    {
      "id": 15,
      "image": "https://pic.zizaihome.com/e2601442-32fe-11e8-91c9-00163e0c1e1c.jpg"
    },
    {
      "id": 16,
      "image": "https://pic.zizaihome.com/e2601442-32fe-11e8-91c9-00163e0c1e1c.jpg"
    },
    {
      "id": 17,
      "image": "https://pic.zizaihome.com/e2601442-32fe-11e8-91c9-00163e0c1e1c.jpg"
    },
    {
      "id": 18,
      "image": "https://pic.zizaihome.com/e2601442-32fe-11e8-91c9-00163e0c1e1c.jpg"
    }
  ]
}