{
  "success": true,
  "currentPage": 1,
  "totalCount": 16,
  "perPage": 5,
  "totalPages": 4,
  "data": [
    {
      "id": 1,
      "image": "/images/common/sample-avatar.jpg",
      "content": "一朵梅花开，胜过千枝艳"
    },
    {
      "id": 2,
      "image": "/images/common/sample-avatar.jpg",
      "content": "一朵梅花开，胜过千枝艳"
    },
    {
      "id": 3,
      "image": "/images/common/sample-avatar.jpg",
      "content": "一朵梅花开，胜过千枝艳"
    },
    {
      "id": 4,
      "image": "/images/common/sample-avatar.jpg",
      "content": "一朵梅花开，胜过千枝艳"
    },
    {
      "id": 5,
      "image": "/images/common/sample-avatar.jpg",
      "content": "一朵梅花开，胜过千枝艳"
    }
  ]
}
