{
  "success": true,
  "currentPage": 1,
  "totalCount": 123,
  "perPage": 5,
  "totalPages": 25,
  "data": [
    {
      "image": "http://imgs.zizaihome.com/c45b8b7a-bd3e-11e6-a26d-00163e0c1e1c.jpg",
      "content": "33",
      "id": 200
    },
    {
      "image": "http://imgs.zizaihome.com/ec477232-bd1d-11e6-a755-00163e0c1e1c.jpg",
      "content": "供奉佛事（无支付、无附言）",
      "id": 191
    },
    {
      "image": "http://imgs.zizaihome.com/2ce86e34-bce9-11e6-ac2c-00163e0c1e1c.jpg",
      "content": "佛事供奉（无规格需支付、无附言）",
      "id": 189
    },
    {
      "image": "http://imgs.zizaihome.com/7c81b770-bd16-11e6-a755-00163e0c1e1c.jpg",
      "content": "佛事供奉（无需支付，有附言）",
      "id": 188
    },
    {
      "image": "http://imgs.zizaihome.com/e3dd0ffc-bc60-11e6-a9af-00163e0c1e1c.jpg",
      "content": "供奉法事（有规格可选、附言）",
      "id": 186
    },
    {
      "image": "http://imgs.zizaihome.com/2ce86e34-bce9-11e6-ac2c-00163e0c1e1c.jpg",
      "content": "佛事供奉（无规格需支付、有附言）",
      "id": 185
    },
    {
      "image": "http://imgs.zizaihome.com/e6222fea-bc60-11e6-a9af-00163e0c1e1c.jpg",
      "content": "供奉法事（有规格可选、附言）",
      "id": 184
    },
    {
      "image": "http://imgs.zizaihome.com/e6222fea-bc60-11e6-a9af-00163e0c1e1c.jpg",
      "content": "供奉法事（有规格可选、附言）",
      "id": 183
    },
    {
      "image": "http://oax4peezh.bkt.clouddn.com/changshengpaiwei_cover.jpg",
      "content": "供奉长生禄位",
      "id": 1
    },
    {
      "image": "http://oax4peezh.bkt.clouddn.com/wangshenglianwei_cover.jpg",
      "content": "供奉往生莲位",
      "id": 2
    }
  ]
}
